{"total": 26, "offset": 0, "next": 8, "data": [{"paperId": "4b639c2b5e64a857d959ca825babbdfe3b717625", "externalIds": {"DOI": "10.1109/Wintechcon66724.2025.11429873", "CorpusId": 286615943}, "title": "Address Hashing Verification for High Bandwidth Memory stacks: A Mixed-Methodology Approach", "venue": "2025 IEEE 6th International Women in Technology Conference (WINTECHCON)", "year": 2025, "openAccessPdf": {"url": "", "status": null, "license": null, "disclaimer": "Notice: Paper or abstract available at https://api.unpaywall.org/v2/10.1109/Wintechcon66724.2025.11429873?email=<INSERT_YOUR_EMAIL> or https://doi.org/10.1109/Wintechcon66724.2025.11429873, which is subject to the license by the author or copyright owner provided with this content. Please go to the source to verify the license and copyright information for your use."}, "authors": [{"authorId": "2286628612", "name": "Savitha Manojna"}, {"authorId": "93659260", "name": "D. Aditi"}, {"authorId": "2424549473", "name": "Abhay Lotlikar"}, {"authorId": "2266974342", "name": "Kanika Juneja"}], "abstract": "High bandwidth memory (HBM) comprises three dimensional vertically stacked DRAM memory interfaces integrated within CPU or GPU chips. It is directly connected to the memory controller logic via an interposer, facilitating communication between HBM stacks and the main die through various independent channels responsible for transmitting data and other signals. Each stack consists of multiple layers of DRAM, interconnected vertically using Through Silicon vias (TSV). Address hashing is a technique that modifies memory addresses to spread them more evenly across hardware components like cache sets or memory banks. This helps prevent performance issues caused by many addresses following similar, predictable patterns. These complex interconnections enable the transfer of numerous signals, enhancing performance but complicating verification. The intricate architecture of HBM necessitates precise manufacturing, as defective layers within the stacks can jeopardize integrity. To mitigate this risk, a harvesting feature is implemented, allowing for rerouting to adjacent DRAM layers in the event of a defect. Furthermore, the complexity of verifying multiple stacks, combined with harvesting, underscores the importance of exhaustive testing to assess all potential defect combinations and to ensure that memory requests are successfully transmitted without loss. In this paper, we illustrate how we effectively verify this design using formal verification(FV) methodologies (Formal Property Verification(FPV), Connectivity Check (CC)) and a checker-based simulation method. We complement formal with a functional verification (simulation based) integrated checker, that reproduces the hashing logic, tracks per-channel queues with latency tolerance, and validates routing across modes and harvesting configurations. This dynamic method catches spec-to-RTL drifts and corner cases under stress and fault injection, enabling fast iteration and high functional coverage with practical regression effort."}, {"paperId": "8d55d93d238d5bae8e5030f9a0d12d163f751447", "externalIds": {"DOI": "10.1109/EDAPS64431.2024.10988462", "CorpusId": 278540038}, "title": "Design and Analysis of Twin Tower High Bandwidth Memory (HBM) Architecture for Large Memory Capacity and High Bandwidth System", "venue": "Electrical Design of Advanced Packaging and Systems Symposium", "year": 2024, "openAccessPdf": {"url": "", "status": "CLOSED", "license": null, "disclaimer": "Notice: Paper or abstract available at https://api.unpaywall.org/v2/10.1109/EDAPS64431.2024.10988462?email=<INSERT_YOUR_EMAIL> or https://doi.org/10.1109/EDAPS64431.2024.10988462, which is subject to the license by the author or copyright owner provided with this content. Please go to the source to verify the license and copyright information for your use."}, "authors": [{"authorId": "2267152482", "name": "Taesoo Kim"}, {"authorId": "2239382208", "name": "Jiwon Yoon"}, {"authorId": "94093710", "name": "Seonguk Choi"}, {"authorId": "2143154138", "name": "Haeyeon Kim"}, {"authorId": "2267045313", "name": "H. Suh"}, {"authorId": "2331876710", "name": "Hyunjun An"}, {"authorId": "2267083622", "name": "Jungmin Ahn"}, {"authorId": "2267254427", "name": "Hyunah Park"}, {"authorId": "2139007793", "name": "Joungho Kim"}], "abstract": "The rapid advancement of AI, driven by generative AI based on transformer models, demands memory systems with higher capacity and bandwidth, yet current HBM technologies face scaling limitations due to architectural and manufacturing constraints. To address this, we propose the twin tower HBM architecture, integrating two DRAM stacks on a single, elongated base die to double memory capacity and enhance bandwidth. The extended base die also allows for architectural flexibility, including the integration of near-memory computing units. Supporting up to 12 DRAM stacks per GPU, this architecture achieves 576 GB capacity and 1,638 GB/s bandwidth\u2014a 27.9% improvement over HBM3e\u2014while maintaining robust signal integrity through optimized interposer channel designs validated via EM and SPICE simulations. This innovative solution provides a cost-effective path to scaling AI infrastructure and overcoming memory bottlenecks in next-generation workloads."}, {"paperId": "01dd0ee7158a1d8db7f7a860f6d7eb51772afe9e", "externalIds": {"DOI": "10.1109/EPEPS63858.2025.11346713", "CorpusId": 284967678}, "title": "Design and Analysis of Scalable On-Package Memory Expansion Architectures for GPU-HBM System Considering Signal Integrity", "venue": "2025 IEEE 34th Conference on Electrical Performance of Electronic Packaging and Systems (EPEPS)", "year": 2025, "openAccessPdf": {"url": "", "status": null, "license": null, "disclaimer": "Notice: Paper or abstract available at https://api.unpaywall.org/v2/10.1109/EPEPS63858.2025.11346713?email=<INSERT_YOUR_EMAIL> or https://doi.org/10.1109/EPEPS63858.2025.11346713, which is subject to the license by the author or copyright owner provided with this content. Please go to the source to verify the license and copyright information for your use."}, "authors": [{"authorId": "2368642047", "name": "Inyoung Choi"}, {"authorId": "1944811369", "name": "Keeyoung Son"}, {"authorId": "2240918555", "name": "Junghyun Lee"}, {"authorId": "2239382208", "name": "Jiwon Yoon"}, {"authorId": "2267045313", "name": "H. Suh"}, {"authorId": "2368726615", "name": "Jaegeun Bae"}, {"authorId": "2159526149", "name": "Junho Park"}, {"authorId": "2355792331", "name": "Byeongmok Kim"}, {"authorId": "2368633469", "name": "Youngsu Yoon"}, {"authorId": "2406271023", "name": "Hyunseo Uhm"}, {"authorId": "2406272230", "name": "Eunji Seo"}, {"authorId": "2139007793", "name": "Joungho Kim"}], "abstract": "In this paper, we propose scalable on-package memory expansion architectures to address the growing memory demands of large-scale AI inference workloads. To achieve high bandwidth and low latency, memory management logic (MML) is embedded in the high bandwidth memory (HBM) base die, enabling unified and transparent access to the expanded memory capacity. The extended memory is interconnected via Universal Chiplet Interconnect Express (UCIe) interface, enabling compatibility with diverse memory types. Two heterogeneous integration strategies are explored: one integrates the extended memory on a shared silicon interposer using UCIe-advanced (UCIe-A), while the other routes it through the package substrate via UCIe-standard (UCIe-S). The interconnects are designed and evaluated using electromagnetic solver and SPICE simulations to analyze signal integrity (SI). The results confirm that both architectures satisfy UCIe specifications, demonstrating the feasibility of supporting high-speed, high-capacity on-package memory scaling. These findings suggest a promising architectural approach to enhancing on-package memory capacity for next-generation AI accelerators."}, {"paperId": "3d8ce8ee81456fdaf8115ef08b5d91d066033a28", "externalIds": {"ArXiv": "2105.03736", "DBLP": "journals/corr/abs-2105-03736", "DOI": "10.1109/jetcas.2021.3127517", "CorpusId": 234767745}, "title": "PIM-DRAM: Accelerating Machine Learning Workloads Using Processing in Commodity DRAM", "venue": "IEEE Journal on Emerging and Selected Topics in Circuits and Systems", "year": 2021, "openAccessPdf": {"url": "https://arxiv.org/pdf/2105.03736", "status": "GREEN", "license": null, "disclaimer": "Notice: Paper or abstract available at https://arxiv.org/abs/2105.03736, which is subject to the license by the author or copyright owner provided with this content. Please go to the source to verify the license and copyright information for your use."}, "authors": [{"authorId": "3468343", "name": "Sourjya Roy"}, {"authorId": "120861201", "name": "M. Ali"}, {"authorId": "145291370", "name": "A. Raghunathan"}], "abstract": "Deep Neural Networks (DNNs) have transformed the field of machine learning (ML) and are widely deployed in many applications involving image, video, speech and natural language processing. The increasing compute demands of DNNs have been widely addressed through Graphics Processing Units (GPUs) and specialized accelerators. However, as model sizes grow, these von Neumann architectures require very high off-chip memory bandwidth to keep the processing elements utilized, as a majority of the data resides in the main memory. Processing in memory is actively being explored as a promising solution to the memory wall bottleneck for ML workloads. In this work, we propose a new DRAM-based processing-in-memory (PIM) multiplication primitive coupled with intra-bank accumulation to accelerate matrix vector multiply operations in ML workloads. The proposed multiplication primitive adds <1% area overhead and does not require any change to the DRAM peripherals. Subsequently, we design a DRAM-based PIM architecture (PIM-DRAM) and a data mapping scheme for executing DNNs on the proposed architecture. System evaluations performed on the AlexNet, VGG16 and ResNet18 DNNs show that the proposed architecture, mapping, and data flow can provide up to 19.5x speedup over an NVIDIA Titan Xp GPU, highlighting the potential of processing in memory for future generations of DNN hardware."}, {"paperId": "ea1dbe7c569ef0fa90b792e451069bfff4dc335d", "externalIds": {"DOI": "10.1109/ECTC51846.2026.00241", "CorpusId": 289331656}, "title": "3D Stacked GPU Architecture with Ultra-Thin 3D DRAM Dies and Voltage Regulators Embedded into Glass Substrate", "venue": "Electronic Components and Technology Conference", "year": 2026, "openAccessPdf": {"url": "", "status": null, "license": null, "disclaimer": "Notice: Paper or abstract available at https://api.unpaywall.org/v2/10.1109/ECTC51846.2026.00241?email=<INSERT_YOUR_EMAIL> or https://doi.org/10.1109/ECTC51846.2026.00241, which is subject to the license by the author or copyright owner provided with this content. Please go to the source to verify the license and copyright information for your use."}, "authors": [{"authorId": "1500380127", "name": "Pin-Jun Chen"}, {"authorId": "150162422", "name": "Janak Sharda"}, {"authorId": "2283154961", "name": "Po-Kai Hsu"}, {"authorId": "2380856396", "name": "M. Park"}, {"authorId": "2383424974", "name": "Sung Kyu Lim"}, {"authorId": "2136405460", "name": "Muhannad S. Bakir"}, {"authorId": "2317097083", "name": "Shimeng Yu"}], "abstract": "Generative AI and Large Language Models are driving an unprecedented demand for memory bandwidth, exposing the physical limits of current 2.5D GPU architectures. While High-Bandwidth Memory (HBM) provides significant performance, it is constrained by finite I/O links and high energy costs associated with long-distance data movement across silicon interposers. Traditional 3D stacking solutions, such as HBM-on-GPU or GPU-on-HBM, face prohibitive challenges in thermal management and power delivery network (PDN) IR drop. This work introduces a novel heterogeneous integration architecture that embeds ultra-thin 3D DRAM (45 \u00b5m thick) within a glass substrate cavity, paired with top-mounted GPU dies for direct heat sink access. To address power integrity, GaN-based integrated voltage regulators (IVRs) are embedded within the glass core to enable near-point-of-load conversion (48 V to 0.7 V). Electro-thermal simulations of a system featuring two reticle-sized GPUs and 14 embedded 3D DRAM dies (175 GB capacity) demonstrate robust performance under advanced liquid cooling. Results show maximum localized temperatures of 100.64 \u00b0C for the GPU and 81.13 \u00b0C for the DRAM. The architecture achieves a projected system bandwidth of 45.5 TB/s, a 5.55\u00d7 increase over current state-of-the-art limits. Furthermore, the embedded IVR arrays reduce IR drop by up to 76.2% compared to conventional voltage regulator module (VRM), utilizing less than 20% area overhead. These findings establish the proposed glass-based 3D integration as a compelling path for next-generation AI accelerators."}, {"paperId": "0efc70b2e38831a5dde8bd72237562159e8a4245", "externalIds": {"MAG": "3202731849", "DOI": "10.1109/tcpmt.2021.3117071", "CorpusId": 244322028}, "title": "Signal Integrity and Computing Performance Analysis of a Processing-In-Memory of High Bandwidth Memory (PIM-HBM) Scheme", "venue": "IEEE Transactions on Components, Packaging, and Manufacturing Technology", "year": 2021, "openAccessPdf": {"url": "", "status": null, "license": null, "disclaimer": "Notice: Paper or abstract available at https://api.unpaywall.org/v2/10.1109/tcpmt.2021.3117071?email=<INSERT_YOUR_EMAIL> or https://doi.org/10.1109/tcpmt.2021.3117071, which is subject to the license by the author or copyright owner provided with this content. Please go to the source to verify the license and copyright information for your use."}, "authors": [{"authorId": "82958953", "name": "Seongguk Kim"}, {"authorId": "2109560168", "name": "Subin Kim"}, {"authorId": "2642102", "name": "Kyungjun Cho"}, {"authorId": "1404075044", "name": "Taein Shin"}, {"authorId": "6483656", "name": "Hyunwook Park"}, {"authorId": "51925770", "name": "Daehwan Lho"}, {"authorId": "2022277", "name": "Shinyoung Park"}, {"authorId": "49825776", "name": "Kyungjune Son"}, {"authorId": "31376027", "name": "Gapyeol Park"}, {"authorId": "3043506", "name": "Seungtaek Jeong"}, {"authorId": "2116681621", "name": "Youngwoo Kim"}, {"authorId": "134176384", "name": "Joungho Kim"}], "abstract": "In this article, we propose a processing-in-memory of high bandwidth memory (PIM-HBM) scheme including system architecture and hardware structure. The proposed scheme embeds processing units into the logic layer of the high bandwidth memory (HBM) to expose an excess dynamic random access memory (DRAM) bandwidth. With parallelized DRAM architecture and a high-speed through-silicon via (TSV) structure, the proposed scheme successfully extends the DRAM bandwidth of processing-in-memory (PIM). Also, the total energy consumption is decreased by the reduced interconnection and capacitance-reduced channel structure. We designed the overall architecture and structure with physical feasibility for application to the current HBM. The logic layer and DRAM layers in the HBM are configured to embed the processing units and parallelize the DRAM channels. For high-speed data transfer with low interconnect energy, the TSV and silicon interposer channels are designed and analyzed in consideration of signal integrity (SI). Based on the physical design, we obtained the interconnect length in detail. The interconnect energy and delay of the silicon interposer and on-chip interconnect were modeled through a SPICE simulation. We analyzed the accurate effects of interconnect reduction caused by PIM. For overall system performance and efficiency analysis, a cycle-level architectural simulation was conducted. We successfully evaluated and analyzed the system performance for memory-intensive applications. As a result, the proposed PIM-HBM achieves 53% and 10.4% improvement on average in computing performance and energy efficiency compared to the conventional graphic processing unit of high bandwidth memory (GPU-HBM)."}, {"paperId": "351fec3fcad6b9d8a0937504e6d602b02f75307a", "externalIds": {"MAG": "2293090620", "DOI": "10.1109/PANPACIFIC.2016.7428425", "CorpusId": 43565255}, "title": "Signal and power integrity design of 2.5D HBM (High bandwidth memory module) on SI interposer", "venue": "2016 Pan Pacific Microelectronics Symposium (Pan Pacific)", "year": 2016, "openAccessPdf": {"url": "", "status": "CLOSED", "license": null, "disclaimer": "Notice: Paper or abstract available at https://api.unpaywall.org/v2/10.1109/PANPACIFIC.2016.7428425?email=<INSERT_YOUR_EMAIL> or https://doi.org/10.1109/PANPACIFIC.2016.7428425, which is subject to the license by the author or copyright owner provided with this content. Please go to the source to verify the license and copyright information for your use."}, "authors": [{"authorId": "2642102", "name": "Kyungjun Cho"}, {"authorId": "2110055135", "name": "Hyunsuk Lee"}, {"authorId": "134176384", "name": "Joungho Kim"}], "abstract": "Spurred by the industrial demands for terabyte/s bandwidth graphics module, high bandwidth memory (HBM) has been emerged to overcome the limitations of conventional DRAMs. Additionally, due to the fine pitch and high density interconnect routing between GPU and 4 HBMs in 2.5D terabyte/s bandwidth graphics module, HBM interposer has also been to the force. However, several signal integrity issues of the HBM interposer occur due to the manufacturing process constraints. In this paper, we design the HBM interposer using 6 layers redistribution layer (RDL) and TSVs in 2.5D terabyte/s bandwidth graphics module. And then, in the designed HBM interposer, electrical performance of the HBM interposer channels using M1, M3, and M5 layer is analyzed by simulation in the frequency-and time-domain. With the simulation results, it is observed that the designed HBM interposer shows good signal integrity."}, {"paperId": "32341fdb751770dc71f33539fec0c9692959af3d", "externalIds": {"DBLP": "conf/iccad/HuLWZYJG25", "DOI": "10.1109/ICCAD66269.2025.11240991", "CorpusId": 283145741}, "title": "PLAIN: Leveraging High Internal Bandwidth in PIM for Accelerating Large Language Model Inference via Mixed-Precision Quantization", "venue": "2025 IEEE/ACM International Conference On Computer Aided Design (ICCAD)", "year": 2025, "openAccessPdf": {"url": "", "status": null, "license": null, "disclaimer": "Notice: Paper or abstract available at https://api.unpaywall.org/v2/10.1109/ICCAD66269.2025.11240991?email=<INSERT_YOUR_EMAIL> or https://doi.org/10.1109/ICCAD66269.2025.11240991, which is subject to the license by the author or copyright owner provided with this content. Please go to the source to verify the license and copyright information for your use."}, "authors": [{"authorId": "2314775913", "name": "Yiwei Hu"}, {"authorId": "2330239337", "name": "Fangxin Liu"}, {"authorId": "2108184060", "name": "Zongwu Wang"}, {"authorId": "2109819730", "name": "Yilong Zhao"}, {"authorId": "2306072252", "name": "Tao Yang"}, {"authorId": "2148655643", "name": "Li Jiang"}, {"authorId": "2351064704", "name": "Haibing Guan"}], "abstract": "DRAM-based processing-in-memory (DRAM-PIM) has gained commercial prominence in recent years. However, its integration for deep learning acceleration, particularly for large language models (LLMs), poses inherent challenges. Existing DRAM-PIM systems are limited in computational capabilities, primarily supporting element-wise and general matrix-vector multiplication (GEMV) operations, which contribute only a small portion of the execution time in LLM workloads. As a result, current systems still require powerful host processors to manage compute-heavy operations.To address these challenges and expand the applicability of commodity DRAM-PIMs in accelerating LLMs, we introduce PLAIN, a novel software/hardware co-design framework for PIM-enabled systems. PLAIN leverages the distribution locality of parameters and the unique characteristics of PIM to achieve optimal trade-offs between inference cost and model quality. Our framework includes three key innovations: 1) firstly, we propose a novel quantization algorithm that determines the optimal precision of parameters within each layer, considering both algorithmic and hardware characteristics to optimize hardware mapping; 2) PLAIN strategically utilizes both GPUs and PIMs, leveraging the high internal memory bandwidth within HBM for attention layers and the powerful compute capability of conventional systems for fully connected (FC) layers; 3) PLAIN integrates a workload-aware dataflow scheduler that efficiently arranges complex computations and memory access for mixed-precision tensors, optimizing execution across different hardware components. Experiments show PLAIN outperforms the conventional GPU with the same memory parameters and the state-of-the-art PIM accelerator, achieving a 5.03\u00d7 and 1.69\u00d7 performance boost, with negligible model quality loss."}]}
